{
	"info": {
		"_postman_id": "107ea533-6332-4cda-b91a-3515dfec12cb",
		"name": "Coworking",
		"schema": "https://schema.getpostman.com/json/collection/v2.1.0/collection.json"
	},
	"item": [
		{
			"name": "Novo Pagamento",
			"request": {
				"auth": {
					"type": "bearer",
					"bearer": [
						{
							"key": "token",
							"value": "Bearer eyJhbGciOiJIUzUxMiJ9.eyJzdWIiOiJpYW1ub2JvZHkiLCJleHAiOjE1NTUwOTE1MTN9.9kb_VcfcWZ4G_4mxPAPNDx2RcH35srUkmmkl4NhSEPo0ntggqEH7l7Pyh30QPNLZJS_dsgzADOSK5L40jE45tw",
							"type": "string"
						}
					]
				},
				"method": "POST",
				"header": [
					{
						"key": "Content-Type",
						"name": "Content-Type",
						"type": "text",
						"value": "application/json"
					}
				],
				"body": {
					"mode": "raw",
					"raw": "{\n    \"clientePacote\": {\n        \"id\":1\n        },\n     \"tipoPagamento\":\"Débito\" \n    \n}"
				},
				"url": {
					"raw": "http://localhost:8081/api/pagamento/novo",
					"protocol": "http",
					"host": [
						"localhost"
					],
					"port": "8081",
					"path": [
						"api",
						"pagamento",
						"novo"
					]
				}
			},
			"response": []
		},
		{
			"name": "Pagamento",
			"protocolProfileBehavior": {
				"disableBodyPruning": true
			},
			"request": {
				"auth": {
					"type": "bearer",
					"bearer": [
						{
							"key": "token",
							"value": "Bearer eyJhbGciOiJIUzUxMiJ9.eyJzdWIiOiJpYW1ub2JvZHkiLCJleHAiOjE1NTUwOTE1MTN9.9kb_VcfcWZ4G_4mxPAPNDx2RcH35srUkmmkl4NhSEPo0ntggqEH7l7Pyh30QPNLZJS_dsgzADOSK5L40jE45tw",
							"type": "string"
						}
					]
				},
				"method": "GET",
				"header": [
					{
						"key": "Content-Type",
						"name": "Content-Type",
						"value": "application/json",
						"type": "text"
					},
					{
						"key": "",
						"value": "Bearer eyJhbGciOiJIUzUxMiJ9.eyJzdWIiOiJpYW1ub2JvZHkiLCJleHAiOjE1NTUwOTE1MTN9.9kb_VcfcWZ4G_4mxPAPNDx2RcH35srUkmmkl4NhSEPo0ntggqEH7l7Pyh30QPNLZJS_dsgzADOSK5L40jE45tw",
						"type": "text",
						"disabled": true
					}
				],
				"body": {
					"mode": "raw",
					"raw": ""
				},
				"url": {
					"raw": "http://localhost:8081/api/pagamento/",
					"protocol": "http",
					"host": [
						"localhost"
					],
					"port": "8081",
					"path": [
						"api",
						"pagamento",
						""
					]
				}
			},
			"response": []
		},
		{
			"name": "Login",
			"protocolProfileBehavior": {
				"disableBodyPruning": true
			},
			"request": {
				"method": "GET",
				"header": [
					{
						"key": "Content-Type",
						"name": "Content-Type",
						"value": "application/json",
						"type": "text"
					}
				],
				"body": {
					"mode": "raw",
					"raw": "{\n\t\"login\": \"iamnobody\",\n\t\"senha\": \"helloo\"\n}"
				},
				"url": {
					"raw": "http://localhost:8081/api/login",
					"protocol": "http",
					"host": [
						"localhost"
					],
					"port": "8081",
					"path": [
						"api",
						"login"
					]
				}
			},
			"response": []
		},
		{
			"name": "Novo Usuario",
			"request": {
				"method": "POST",
				"header": [
					{
						"key": "Content-Type",
						"name": "Content-Type",
						"value": "application/json",
						"type": "text"
					}
				],
				"body": {
					"mode": "raw",
					"raw": "{\n\t\"nome\": \"ninguem\",\n\t\"email\": \"nobody@nobody.ghost\",\n\t\"login\": \"iamnobody\",\n\t\"senha\": \"helloo\"\n}"
				},
				"url": {
					"raw": "http://localhost:8081/api/usuario/novo",
					"protocol": "http",
					"host": [
						"localhost"
					],
					"port": "8081",
					"path": [
						"api",
						"usuario",
						"novo"
					]
				}
			},
			"response": []
		},
		{
			"name": "Acessos Novos",
			"request": {
				"auth": {
					"type": "bearer",
					"bearer": [
						{
							"key": "token",
							"value": "Bearer eyJhbGciOiJIUzUxMiJ9.eyJzdWIiOiJpYW1ub2JvZHkiLCJleHAiOjE1NTUwOTE1MTN9.9kb_VcfcWZ4G_4mxPAPNDx2RcH35srUkmmkl4NhSEPo0ntggqEH7l7Pyh30QPNLZJS_dsgzADOSK5L40jE45tw",
							"type": "string"
						}
					]
				},
				"method": "POST",
				"header": [
					{
						"key": "Content-Type",
						"name": "Content-Type",
						"type": "text",
						"value": "application/json"
					}
				],
				"body": {
					"mode": "raw",
					"raw": "{\t\n\t\"clientesSaldoCliente\": {\n\t\t\"id\": {\n\t\t\t\"cliente\": {\n\t\t\t\t\"id\": 1\n\t\t\t},\n\t\t\t\"espaco\": {\n\t\t\t\t\"id\": 1\n\t\t\t}\n\t\t}\n\t},\n\t\"isEntrada\":true\n\t\n}"
				},
				"url": {
					"raw": "http://localhost:8081/api/acessos/novo",
					"protocol": "http",
					"host": [
						"localhost"
					],
					"port": "8081",
					"path": [
						"api",
						"acessos",
						"novo"
					]
				}
			},
			"response": []
		},
		{
			"name": "Novo TipoContato",
			"request": {
				"auth": {
					"type": "bearer",
					"bearer": [
						{
							"key": "token",
							"value": "Bearer eyJhbGciOiJIUzUxMiJ9.eyJzdWIiOiJpYW1ub2JvZHkiLCJleHAiOjE1NTUwOTE1MTN9.9kb_VcfcWZ4G_4mxPAPNDx2RcH35srUkmmkl4NhSEPo0ntggqEH7l7Pyh30QPNLZJS_dsgzADOSK5L40jE45tw",
							"type": "string"
						}
					]
				},
				"method": "POST",
				"header": [
					{
						"key": "Content-Type",
						"name": "Content-Type",
						"value": "application/json",
						"type": "text"
					}
				],
				"body": {
					"mode": "raw",
					"raw": "{\n\t\"nome\": \"email\"\n}"
				},
				"url": {
					"raw": "http://localhost:8081/api/tipoContato/novo",
					"protocol": "http",
					"host": [
						"localhost"
					],
					"port": "8081",
					"path": [
						"api",
						"tipoContato",
						"novo"
					]
				}
			},
			"response": []
		},
		{
			"name": "Contato novo",
			"request": {
				"auth": {
					"type": "bearer",
					"bearer": [
						{
							"key": "token",
							"value": "Bearer eyJhbGciOiJIUzUxMiJ9.eyJzdWIiOiJpYW1ub2JvZHkiLCJleHAiOjE1NTUwOTE1MTN9.9kb_VcfcWZ4G_4mxPAPNDx2RcH35srUkmmkl4NhSEPo0ntggqEH7l7Pyh30QPNLZJS_dsgzADOSK5L40jE45tw",
							"type": "string"
						}
					]
				},
				"method": "POST",
				"header": [
					{
						"key": "Content-Type",
						"name": "Content-Type",
						"value": "application/json",
						"type": "text"
					}
				],
				"body": {
					"mode": "raw",
					"raw": "{\n\t\"tipoContato\":\n\t\t{\n\t\t\"id\":1\n\t\t},\n\t\t\"valor\": \"email@email.com\"\n}"
				},
				"url": {
					"raw": "http://localhost:8081/api/contato/novo",
					"protocol": "http",
					"host": [
						"localhost"
					],
					"port": "8081",
					"path": [
						"api",
						"contato",
						"novo"
					]
				}
			},
			"response": []
		},
		{
			"name": "Cliente Novo",
			"request": {
				"auth": {
					"type": "bearer",
					"bearer": [
						{
							"key": "token",
							"value": "Bearer eyJhbGciOiJIUzUxMiJ9.eyJzdWIiOiJpYW1ub2JvZHkiLCJleHAiOjE1NTUxNzEzNjJ9.8tXOMj81wKcySGqoMef5zf0PzuryVWX5fHC8BX-bMdJfK9iqgh9VBAnM5cj-X6CTI_T0Zt7W3O2_1gt1Sph4VQ",
							"type": "string"
						}
					]
				},
				"method": "POST",
				"header": [
					{
						"key": "Content-Type",
						"name": "Content-Type",
						"value": "application/json",
						"type": "text"
					}
				],
				"body": {
					"mode": "raw",
					"raw": "{\n\t\"nome\": \"joao\",\n\t\"cpf\": \"213\",\n\t\"dataNascimento\": \"1999-02-21\",\n\t\"contato\":{\n\t\t\"id\":1\n\t}\n}"
				},
				"url": {
					"raw": "http://localhost:8081/api/cliente/novo",
					"protocol": "http",
					"host": [
						"localhost"
					],
					"port": "8081",
					"path": [
						"api",
						"cliente",
						"novo"
					]
				}
			},
			"response": []
		},
		{
			"name": "Pacote Novo",
			"request": {
				"auth": {
					"type": "bearer",
					"bearer": [
						{
							"key": "token",
							"value": "Bearer eyJhbGciOiJIUzUxMiJ9.eyJzdWIiOiJpYW1ub2JvZHkiLCJleHAiOjE1NTUxNzEzNjJ9.8tXOMj81wKcySGqoMef5zf0PzuryVWX5fHC8BX-bMdJfK9iqgh9VBAnM5cj-X6CTI_T0Zt7W3O2_1gt1Sph4VQ",
							"type": "string"
						}
					]
				},
				"method": "POST",
				"header": [
					{
						"key": "Content-Type",
						"name": "Content-Type",
						"value": "application/json",
						"type": "text"
					}
				],
				"body": {
					"mode": "raw",
					"raw": "{\n\t\"valor\":2020\n}"
				},
				"url": {
					"raw": "http://localhost:8081/api/pacote/novo",
					"protocol": "http",
					"host": [
						"localhost"
					],
					"port": "8081",
					"path": [
						"api",
						"pacote",
						"novo"
					]
				}
			},
			"response": []
		},
		{
			"name": "Espaco Novo",
			"request": {
				"auth": {
					"type": "bearer",
					"bearer": [
						{
							"key": "token",
							"value": "Bearer eyJhbGciOiJIUzUxMiJ9.eyJzdWIiOiJpYW1ub2JvZHkiLCJleHAiOjE1NTUxNzEzNjJ9.8tXOMj81wKcySGqoMef5zf0PzuryVWX5fHC8BX-bMdJfK9iqgh9VBAnM5cj-X6CTI_T0Zt7W3O2_1gt1Sph4VQ",
							"type": "string"
						}
					]
				},
				"method": "POST",
				"header": [
					{
						"key": "Content-Type",
						"name": "Content-Type",
						"value": "application/json",
						"type": "text"
					}
				],
				"body": {
					"mode": "raw",
					"raw": "{\n\t\"nome\":\"joao\",\n\t\"qtdPessoas\": 2,\n\t\"valor\": 20\n}"
				},
				"url": {
					"raw": "http://localhost:8081/api/espaco/novo",
					"protocol": "http",
					"host": [
						"localhost"
					],
					"port": "8081",
					"path": [
						"api",
						"espaco",
						"novo"
					]
				}
			},
			"response": []
		},
		{
			"name": "Novo EspacoPacote",
			"request": {
				"auth": {
					"type": "bearer",
					"bearer": [
						{
							"key": "token",
							"value": "Bearer eyJhbGciOiJIUzUxMiJ9.eyJzdWIiOiJpYW1ub2JvZHkiLCJleHAiOjE1NTUxNzEzNjJ9.8tXOMj81wKcySGqoMef5zf0PzuryVWX5fHC8BX-bMdJfK9iqgh9VBAnM5cj-X6CTI_T0Zt7W3O2_1gt1Sph4VQ",
							"type": "string"
						}
					]
				},
				"method": "POST",
				"header": [
					{
						"key": "Content-Type",
						"name": "Content-Type",
						"value": "application/json",
						"type": "text"
					}
				],
				"body": {
					"mode": "raw",
					"raw": "{\n\t\"espaco\":{\n\t\t\"id\":1\n\t},\n\t\"pacote\":{\n\t\t\"id\":1\n\t},\n\t\"quantidade\": 20,\n\t\"prazo\": 30\n}"
				},
				"url": {
					"raw": "http://localhost:8081/api/espacoPacote/novo",
					"protocol": "http",
					"host": [
						"localhost"
					],
					"port": "8081",
					"path": [
						"api",
						"espacoPacote",
						"novo"
					]
				}
			},
			"response": []
		},
		{
			"name": "Cliente Pacote Novo",
			"request": {
				"auth": {
					"type": "bearer",
					"bearer": [
						{
							"key": "token",
							"value": "Bearer eyJhbGciOiJIUzUxMiJ9.eyJzdWIiOiJpYW1ub2JvZHkiLCJleHAiOjE1NTUxNzEzNjJ9.8tXOMj81wKcySGqoMef5zf0PzuryVWX5fHC8BX-bMdJfK9iqgh9VBAnM5cj-X6CTI_T0Zt7W3O2_1gt1Sph4VQ",
							"type": "string"
						}
					]
				},
				"method": "POST",
				"header": [
					{
						"key": "Content-Type",
						"name": "Content-Type",
						"value": "application/json",
						"type": "text"
					}
				],
				"body": {
					"mode": "raw",
					"raw": "{\n\t\"cliente\":{\n\t\t\"id\": 1\n\t},\n\t\"pacote\":{\n\t\t\"id\":1\n\t},\n\t\"quantidade\": 1\n}\n"
				},
				"url": {
					"raw": "http://localhost:8081/api/clientePacote/novo",
					"protocol": "http",
					"host": [
						"localhost"
					],
					"port": "8081",
					"path": [
						"api",
						"clientePacote",
						"novo"
					]
				}
			},
			"response": []
		},
		{
			"name": "Contratacao novo",
			"request": {
				"auth": {
					"type": "bearer",
					"bearer": [
						{
							"key": "token",
							"value": "Bearer eyJhbGciOiJIUzUxMiJ9.eyJzdWIiOiJpYW1ub2JvZHkiLCJleHAiOjE1NTUxNzEzNjJ9.8tXOMj81wKcySGqoMef5zf0PzuryVWX5fHC8BX-bMdJfK9iqgh9VBAnM5cj-X6CTI_T0Zt7W3O2_1gt1Sph4VQ",
							"type": "string"
						}
					]
				},
				"method": "POST",
				"header": [
					{
						"key": "Content-Type",
						"name": "Content-Type",
						"value": "application/json",
						"type": "text"
					}
				],
				"body": {
					"mode": "raw",
					"raw": "{\n\t\"quantidade\":1,\n\t\"TipoContratacao\":\"MINUTO\",\n\t\"prazo\":20,\n\t\"espaco\":{\n\t\t\"id\":1\n\t},\n\t\"cliente\":{\n\t\t\"id\":1\n\t}\n\t\n}"
				},
				"url": {
					"raw": "http://localhost:8081/api/contratacao/novo",
					"protocol": "http",
					"host": [
						"localhost"
					],
					"port": "8081",
					"path": [
						"api",
						"contratacao",
						"novo"
					]
				}
			},
			"response": []
		},
		{
			"name": "Saldo",
			"request": {
				"auth": {
					"type": "bearer",
					"bearer": [
						{
							"key": "token",
							"value": "Bearer eyJhbGciOiJIUzUxMiJ9.eyJzdWIiOiJpYW1ub2JvZHkiLCJleHAiOjE1NTUxNzEzNjJ9.8tXOMj81wKcySGqoMef5zf0PzuryVWX5fHC8BX-bMdJfK9iqgh9VBAnM5cj-X6CTI_T0Zt7W3O2_1gt1Sph4VQ",
							"type": "string"
						}
					]
				},
				"method": "GET",
				"header": [],
				"body": {
					"mode": "raw",
					"raw": ""
				},
				"url": {
					"raw": "http://localhost:8081/api/saldoCliente/",
					"protocol": "http",
					"host": [
						"localhost"
					],
					"port": "8081",
					"path": [
						"api",
						"saldoCliente",
						""
					]
				}
			},
			"response": []
		},
		{
			"name": "Pagamento Pacote",
			"request": {
				"auth": {
					"type": "bearer",
					"bearer": [
						{
							"key": "token",
							"value": "Bearer eyJhbGciOiJIUzUxMiJ9.eyJzdWIiOiJpYW1ub2JvZHkiLCJleHAiOjE1NTUxNzEzNjJ9.8tXOMj81wKcySGqoMef5zf0PzuryVWX5fHC8BX-bMdJfK9iqgh9VBAnM5cj-X6CTI_T0Zt7W3O2_1gt1Sph4VQ",
							"type": "string"
						}
					]
				},
				"method": "POST",
				"header": [
					{
						"key": "Content-Type",
						"name": "Content-Type",
						"value": "application/json",
						"type": "text"
					}
				],
				"body": {
					"mode": "raw",
					"raw": "{\n\t \"clientePacote\": {\n        \t\"id\":1\n        },\n        \"quantidade\": 50,\n        \"tipoPagamento\":\"Débito\"\n}"
				},
				"url": {
					"raw": "http://localhost:8081/api/pagamento/novo",
					"protocol": "http",
					"host": [
						"localhost"
					],
					"port": "8081",
					"path": [
						"api",
						"pagamento",
						"novo"
					]
				}
			},
			"response": []
		},
		{
			"name": "http://localhost:8081/api/cliente/1",
			"request": {
				"auth": {
					"type": "bearer",
					"bearer": [
						{
							"key": "token",
							"value": "Bearer eyJhbGciOiJIUzUxMiJ9.eyJzdWIiOiJpYW1ub2JvZHkiLCJleHAiOjE1NTUxNzEzNjJ9.8tXOMj81wKcySGqoMef5zf0PzuryVWX5fHC8BX-bMdJfK9iqgh9VBAnM5cj-X6CTI_T0Zt7W3O2_1gt1Sph4VQ",
							"type": "string"
						}
					]
				},
				"method": "GET",
				"header": [],
				"body": {
					"mode": "raw",
					"raw": ""
				},
				"url": {
					"raw": "http://localhost:8081/api/cliente/1",
					"protocol": "http",
					"host": [
						"localhost"
					],
					"port": "8081",
					"path": [
						"api",
						"cliente",
						"1"
					]
				}
			},
			"response": []
		}
	]
}